…
If you only request data from gbif, like `from = 'gbif'`, then the other four source slots are present in the response object, but have no data.

You can quickly get just the GBIF data by indexing to it, like


```r
df$gbif
```

```
#> Species [Accipiter striatus (500)] 
#> First 10 rows of [Accipiter_striatus]
#> 
#> # A tibble: 500 x 101
#>    name  longitude latitude prov  issues key   scientificName datasetKey
#>    <chr>     <dbl>    <dbl> <chr> <chr>  <chr> <chr>          <chr>     
#>  1 Acci…    -107.      24.0 gbif  cdrou… 1990… Accipiter str… 50c9509d-…
#>  2 Acci…     -97.3     37.7 gbif  cdrou… 1990… Accipiter str… 50c9509d-…
#>  3 Acci…     -98.4     30.3 gbif  cdrou… 1993… Accipiter str… 50c9509d-…
#>  4 Acci…     -86.6     39.2 gbif  cdrou… 2012… Accipiter str… 50c9509d-…
#>  5 Acci…     -97.0     32.9 gbif  cdrou… 1990… Accipiter str… 50c9509d-…
#>  6 Acci…     -98.4     30.4 gbif  cdrou… 1993… Accipiter str… 50c9509d-…
#>  7 Acci…     -98.0     30.1 gbif  cdrou… 2006… Accipiter str… 50c9509d-…
#>  8 Acci…    -117.      32.9 gbif  cdrou… 1990… Accipiter str… 50c9509d-…
#>  9 Acci…    -135.      57.0 gbif  cdrou… 1990… Accipiter str… 50c9509d-…
#> 10 Acci…    -135.      57.0 gbif  cdrou… 1990… Accipiter str… 50c9509d-…
#> # … with 490 more rows, and 93 more variables: publishingOrgKey <chr>,
#> #   networkKeys <list>, installationKey <chr>, publishingCountry <chr>,
#> #   protocol <chr>, lastCrawled <chr>, lastParsed <chr>, crawlId <int>,
#> #   basisOfRecord <chr>, taxonKey <int>, kingdomKey <int>,
#> #   phylumKey <int>, classKey <int>, orderKey <int>, familyKey <int>,
#> #   genusKey <int>, speciesKey <int>, acceptedTaxonKey <int>,
#> #   acceptedScientificName <chr>, kingdom <chr>, phylum <chr>,
#> #   order <chr>, family <chr>, genus <chr>, species <chr>,
#> #   genericName <chr>, specificEpithet <chr>, taxonRank <chr>,
…
When you get data from multiple providers, the fields returned are slightly different, e.g.:


```r
df <- occ(query = 'Accipiter striatus', from = c('gbif', 'ecoengine'), limit = 25)
df$gbif$data$Accipiter_striatus
```

```
#> # A tibble: 25 x 71
#>    name  longitude latitude issues prov  key   scientificName datasetKey
#>    <chr>     <dbl>    <dbl> <chr>  <chr> <chr> <chr>          <chr>     
#>  1 Acci…    -107.      24.0 cdrou… gbif  1990… Accipiter str… 50c9509d-…
#>  2 Acci…     -97.3     37.7 cdrou… gbif  1990… Accipiter str… 50c9509d-…
#>  3 Acci…     -98.4     30.3 cdrou… gbif  1993… Accipiter str… 50c9509d-…
#>  4 Acci…     -86.6     39.2 cdrou… gbif  2012… Accipiter str… 50c9509d-…
#>  5 Acci…     -97.0     32.9 cdrou… gbif  1990… Accipiter str… 50c9509d-…
#>  6 Acci…     -98.4     30.4 cdrou… gbif  1993… Accipiter str… 50c9509d-…
#>  7 Acci…     -98.0     30.1 cdrou… gbif  2006… Accipiter str… 50c9509d-…
#>  8 Acci…    -117.      32.9 cdrou… gbif  1990… Accipiter str… 50c9509d-…
#>  9 Acci…    -135.      57.0 cdrou… gbif  1990… Accipiter str… 50c9509d-…
#> 10 Acci…    -135.      57.0 cdrou… gbif  1990… Accipiter str… 50c9509d-…
#> # … with 15 more rows, and 63 more variables: publishingOrgKey <chr>,
#> #   networkKeys <list>, installationKey <chr>, publishingCountry <chr>,
#> #   protocol <chr>, lastCrawled <chr>, lastParsed <chr>, crawlId <int>,
#> #   basisOfRecord <chr>, taxonKey <int>, kingdomKey <int>,
#> #   phylumKey <int>, classKey <int>, orderKey <int>, familyKey <int>,
#> #   genusKey <int>, speciesKey <int>, acceptedTaxonKey <int>,
#> #   acceptedScientificName <chr>, kingdom <chr>, phylum <chr>,
#> #   order <chr>, family <chr>, genus <chr>, species <chr>,
#> #   genericName <chr>, specificEpithet <chr>, taxonRank <chr>,
…
```r
df$ecoengine$data$Accipiter_striatus
```

```
#> # A tibble: 25 x 17
#>    longitude latitude url   key   observation_type name  country
#>        <dbl>    <dbl> <chr> <chr> <chr>            <chr> <chr>  
#>  1    -117.      34.5 http… MVZ:… specimen         Acci… United…
#>  2    -117.      33.1 http… MVZ:… specimen         Acci… United…
#>  3    -119.      39.5 http… MVZ:… specimen         Acci… United…
#>  4    -118.      36.5 http… MVZ:… specimen         Acci… United…
#>  5    -124.      40.7 http… MVZ:… specimen         Acci… United…
#>  6     -94.6     39.1 http… MVZ:… specimen         Acci… United…
#>  7    -158.      67.0 http… MVZ:… specimen         Acci… United…
#>  8    -122.      37.5 http… MVZ:… specimen         Acci… United…
#>  9      NA       NA   http… MVZ:… specimen         Acci… United…
#> 10    -121.      39.3 http… MVZ:… specimen         Acci… United…
#> # … with 15 more rows, and 10 more variables: state_province <chr>,
#> #   begin_date <date>, end_date <chr>, source <chr>,
#> #   remote_resource <chr>, locality <chr>,
#> #   coordinate_uncertainty_in_meters <int>, recorded_by <chr>,
#> #   last_modified <chr>, prov <chr>
```

We provide a function `occ2df` that pulls out a few key columns needed for making maps:


```r
occ2df(df)
```

```
#> # A tibble: 50 x 6
#>    name                        longitude latitude prov  date       key     
#>    <chr>                           <dbl>    <dbl> <chr> <date>     <chr>   
#>  1 Accipiter striatus Vieillo…    -107.      24.0 gbif  2019-01-06 1990485…
#>  2 Accipiter striatus Vieillo…     -97.3     37.7 gbif  2019-01-18 1990616…
#>  3 Accipiter striatus Vieillo…     -98.4     30.3 gbif  2019-01-29 1993731…
#>  4 Accipiter striatus Vieillo…     -86.6     39.2 gbif  2019-01-26 2012971…
#>  5 Accipiter striatus Vieillo…     -97.0     32.9 gbif  2019-01-24 1990580…
#>  6 Accipiter striatus Vieillo…     -98.4     30.4 gbif  2019-01-31 1993731…
#>  7 Accipiter striatus Vieillo…     -98.0     30.1 gbif  2019-01-18 2006044…
#>  8 Accipiter striatus Vieillo…    -117.      32.9 gbif  2019-01-14 1990502…
#>  9 Accipiter striatus Vieillo…    -135.      57.0 gbif  2019-01-17 1990521…
#> 10 Accipiter striatus Vieillo…    -135.      57.0 gbif  2019-01-19 1990537…
#> # … with 40 more rows
```
…
