…
If you only request data from gbif, like `from = 'gbif'`, then the other four source slots are present in the response object, but have no data.

You can quickly get just the GBIF data by indexing to it, like


```r
df$gbif
```

```
#> Species [Accipiter striatus (500)] 
#> First 10 rows of [Accipiter_striatus]
#> 
#> # A tibble: 500 x 117
#>    name  longitude latitude prov  issues    key datasetKey publishingOrgKey
#>    <chr>     <dbl>    <dbl> <chr> <chr>   <int> <chr>      <chr>           
#>  1 Acci…    -104.      20.7 gbif  cdrou… 1.81e9 50c9509d-… 28eb1a3f-1c15-4…
#>  2 Acci…     -98.6     33.8 gbif  cdrou… 1.81e9 50c9509d-… 28eb1a3f-1c15-4…
#>  3 Acci…     -74.1     40.1 gbif  cdrou… 1.81e9 50c9509d-… 28eb1a3f-1c15-4…
#>  4 Acci…    -122.      38.0 gbif  cdrou… 1.80e9 50c9509d-… 28eb1a3f-1c15-4…
#>  5 Acci…    -122.      37.2 gbif  cdrou… 1.81e9 50c9509d-… 28eb1a3f-1c15-4…
#>  6 Acci…    -122.      37.0 gbif  cdrou… 1.80e9 50c9509d-… 28eb1a3f-1c15-4…
#>  7 Acci…    -103.      50.1 gbif  cdrou… 1.80e9 50c9509d-… 28eb1a3f-1c15-4…
#>  8 Acci…    -122.      38.0 gbif  cdrou… 1.80e9 50c9509d-… 28eb1a3f-1c15-4…
#>  9 Acci…    -115.      36.2 gbif  cdrou… 1.81e9 50c9509d-… 28eb1a3f-1c15-4…
#> 10 Acci…    -122.      37.1 gbif  cdrou… 1.81e9 50c9509d-… 28eb1a3f-1c15-4…
#> # ... with 490 more rows, and 109 more variables: networkKeys <list>,
#> #   installationKey <chr>, publishingCountry <chr>, protocol <chr>,
#> #   lastCrawled <chr>, lastParsed <chr>, crawlId <int>,
#> #   basisOfRecord <chr>, taxonKey <int>, kingdomKey <int>,
#> #   phylumKey <int>, classKey <int>, orderKey <int>, familyKey <int>,
#> #   genusKey <int>, acceptedTaxonKey <int>, scientificName <chr>,
#> #   acceptedScientificName <chr>, kingdom <chr>, phylum <chr>,
#> #   order <chr>, family <chr>, genus <chr>, genericName <chr>,
#> #   specificEpithet <chr>, taxonRank <chr>, taxonomicStatus <chr>,
…
When you get data from multiple providers, the fields returned are slightly different, e.g.:


```r
df <- occ(query = 'Accipiter striatus', from = c('gbif', 'ecoengine'), limit = 25)
df$gbif$data$Accipiter_striatus
```

```
#> # A tibble: 25 x 69
#>    name  longitude latitude issues prov     key datasetKey publishingOrgKey
#>    <chr>     <dbl>    <dbl> <chr>  <chr>  <int> <chr>      <chr>           
#>  1 Acci…    -104.      20.7 cdrou… gbif  1.81e9 50c9509d-… 28eb1a3f-1c15-4…
#>  2 Acci…     -98.6     33.8 cdrou… gbif  1.81e9 50c9509d-… 28eb1a3f-1c15-4…
#>  3 Acci…     -74.1     40.1 cdrou… gbif  1.81e9 50c9509d-… 28eb1a3f-1c15-4…
#>  4 Acci…    -122.      38.0 cdrou… gbif  1.80e9 50c9509d-… 28eb1a3f-1c15-4…
#>  5 Acci…    -122.      37.2 cdrou… gbif  1.81e9 50c9509d-… 28eb1a3f-1c15-4…
#>  6 Acci…    -122.      37.0 cdrou… gbif  1.80e9 50c9509d-… 28eb1a3f-1c15-4…
#>  7 Acci…    -103.      50.1 cdrou… gbif  1.80e9 50c9509d-… 28eb1a3f-1c15-4…
#>  8 Acci…    -122.      38.0 cdrou… gbif  1.80e9 50c9509d-… 28eb1a3f-1c15-4…
#>  9 Acci…    -115.      36.2 cdrou… gbif  1.81e9 50c9509d-… 28eb1a3f-1c15-4…
#> 10 Acci…    -122.      37.1 cdrou… gbif  1.81e9 50c9509d-… 28eb1a3f-1c15-4…
#> # ... with 15 more rows, and 61 more variables: networkKeys <list>,
#> #   installationKey <chr>, publishingCountry <chr>, protocol <chr>,
#> #   lastCrawled <chr>, lastParsed <chr>, crawlId <int>,
#> #   basisOfRecord <chr>, taxonKey <int>, kingdomKey <int>,
#> #   phylumKey <int>, classKey <int>, orderKey <int>, familyKey <int>,
#> #   genusKey <int>, acceptedTaxonKey <int>, scientificName <chr>,
#> #   acceptedScientificName <chr>, kingdom <chr>, phylum <chr>,
#> #   order <chr>, family <chr>, genus <chr>, genericName <chr>,
#> #   specificEpithet <chr>, taxonRank <chr>, taxonomicStatus <chr>,
…
```r
df$ecoengine$data$Accipiter_striatus
```

```
#> # A tibble: 25 x 17
#>    longitude latitude url   key   observation_type name  country
#>        <dbl>    <dbl> <chr> <chr> <chr>            <chr> <chr>  
#>  1     -115.     33.4 http… MVZ:… specimen         Acci… United…
#>  2     -117.     33.1 http… MVZ:… specimen         Acci… United…
#>  3     -119.     39.5 http… MVZ:… specimen         Acci… United…
#>  4     -116.     40.2 http… MVZ:… specimen         Acci… United…
#>  5     -117.     38.9 http… MVZ:… specimen         Acci… United…
#>  6     -118.     45.1 http… MVZ:… specimen         Acci… United…
#>  7     -123.     39.7 http… MVZ:… specimen         Acci… United…
#>  8     -123.     40.5 http… MVZ:… specimen         Acci… United…
#>  9     -124.     40.5 http… MVZ:… specimen         Acci… United…
#> 10     -120.     41.4 http… MVZ:… specimen         Acci… United…
#> # ... with 15 more rows, and 10 more variables: state_province <chr>,
#> #   begin_date <date>, end_date <chr>, source <chr>,
#> #   remote_resource <chr>, locality <chr>,
#> #   coordinate_uncertainty_in_meters <int>, recorded_by <chr>,
#> #   last_modified <chr>, prov <chr>
```

We provide a function `occ2df` that pulls out a few key columns needed for making maps:


```r
occ2df(df)
```

```
#> # A tibble: 50 x 6
#>    name               longitude latitude prov  date       key       
#>    <chr>                  <dbl>    <dbl> <chr> <date>     <chr>     
#>  1 Accipiter striatus    -104.      20.7 gbif  2018-01-27 1806372635
#>  2 Accipiter striatus     -98.6     33.8 gbif  2018-01-21 1806341314
#>  3 Accipiter striatus     -74.1     40.1 gbif  2018-01-26 1806363338
#>  4 Accipiter striatus    -122.      38.0 gbif  2018-01-01 1802760979
#>  5 Accipiter striatus    -122.      37.2 gbif  2018-01-20 1806339729
#>  6 Accipiter striatus    -122.      37.0 gbif  2018-01-01 1802763269
#>  7 Accipiter striatus    -103.      50.1 gbif  2018-01-04 1802777994
#>  8 Accipiter striatus    -122.      38.0 gbif  2018-01-06 1802790830
#>  9 Accipiter striatus    -115.      36.2 gbif  2018-01-23 1806356037
#> 10 Accipiter striatus    -122.      37.1 gbif  2018-01-01 1807330165
#> # ... with 40 more rows
```
…
