…
If you only request data from gbif, like `from = 'gbif'`, then the other four source slots are present in the response object, but have no data.

You can quickly get just the GBIF data by indexing to it, like


```r
df$gbif
```

```
#> Species [Accipiter striatus (500)] 
#> First 10 rows of [Accipiter_striatus]
#> 
#> # A tibble: 500 × 105
#>                  name  longitude latitude  prov         issues        key
#>                 <chr>      <dbl>    <dbl> <chr>          <chr>      <int>
#> 1  Accipiter striatus  -97.12924 32.70085  gbif cdround,gass84 1453324136
#> 2  Accipiter striatus  -84.74625 40.01773  gbif cdround,gass84 1453369124
#> 3  Accipiter striatus  -72.58904 43.85320  gbif cdround,gass84 1453335509
#> 4  Accipiter striatus  -96.77096 33.22315  gbif cdround,gass84 1453335637
#> 5  Accipiter striatus -111.01449 32.27128  gbif cdround,gass84 1453356813
#> 6  Accipiter striatus  -77.41813 39.49461  gbif cdround,gass84 1453332084
#> 7  Accipiter striatus -122.05344 36.95316  gbif cdround,gass84 1453346783
#> 8  Accipiter striatus -122.59224 38.05409  gbif cdround,gass84 1453398190
#> 9  Accipiter striatus -100.92892 25.45035  gbif cdround,gass84 1453328268
#> 10 Accipiter striatus  -96.82008 33.17463  gbif cdround,gass84 1453360827
#> # ... with 490 more rows, and 99 more variables: datasetKey <chr>,
#> #   publishingOrgKey <chr>, publishingCountry <chr>, protocol <chr>,
#> #   lastCrawled <chr>, lastParsed <chr>, crawlId <int>,
#> #   basisOfRecord <chr>, taxonKey <int>, kingdomKey <int>,
#> #   phylumKey <int>, classKey <int>, orderKey <int>, familyKey <int>,
#> #   genusKey <int>, scientificName <chr>, kingdom <chr>, phylum <chr>,
#> #   order <chr>, family <chr>, genus <chr>, genericName <chr>,
#> #   specificEpithet <chr>, taxonRank <chr>, dateIdentified <chr>,
#> #   coordinateUncertaintyInMeters <dbl>, year <int>, month <int>,
…
When you get data from multiple providers, the fields returned are slightly different, e.g.:


```r
df <- occ(query = 'Accipiter striatus', from = c('gbif', 'ecoengine'), limit = 25)
df$gbif$data$Accipiter_striatus
```

```
#> # A tibble: 25 × 63
#>                  name  longitude latitude         issues  prov        key
#>                 <chr>      <dbl>    <dbl>          <chr> <chr>      <int>
#> 1  Accipiter striatus  -97.12924 32.70085 cdround,gass84  gbif 1453324136
#> 2  Accipiter striatus  -84.74625 40.01773 cdround,gass84  gbif 1453369124
#> 3  Accipiter striatus  -72.58904 43.85320 cdround,gass84  gbif 1453335509
#> 4  Accipiter striatus  -96.77096 33.22315 cdround,gass84  gbif 1453335637
#> 5  Accipiter striatus -111.01449 32.27128 cdround,gass84  gbif 1453356813
#> 6  Accipiter striatus  -77.41813 39.49461 cdround,gass84  gbif 1453332084
#> 7  Accipiter striatus -122.05344 36.95316 cdround,gass84  gbif 1453346783
#> 8  Accipiter striatus -122.59224 38.05409 cdround,gass84  gbif 1453398190
#> 9  Accipiter striatus -100.92892 25.45035 cdround,gass84  gbif 1453328268
#> 10 Accipiter striatus  -96.82008 33.17463 cdround,gass84  gbif 1453360827
#> # ... with 15 more rows, and 57 more variables: datasetKey <chr>,
#> #   publishingOrgKey <chr>, publishingCountry <chr>, protocol <chr>,
#> #   lastCrawled <chr>, lastParsed <chr>, crawlId <int>,
#> #   basisOfRecord <chr>, taxonKey <int>, kingdomKey <int>,
#> #   phylumKey <int>, classKey <int>, orderKey <int>, familyKey <int>,
#> #   genusKey <int>, scientificName <chr>, kingdom <chr>, phylum <chr>,
#> #   order <chr>, family <chr>, genus <chr>, genericName <chr>,
#> #   specificEpithet <chr>, taxonRank <chr>, dateIdentified <chr>,
#> #   coordinateUncertaintyInMeters <dbl>, year <int>, month <int>,
…
```r
df$ecoengine$data$Accipiter_striatus
```

```
#> # A tibble: 25 × 17
#>    longitude latitude
#> *      <dbl>    <dbl>
#> 1   -87.5932  41.7945
#> 2   -86.9241  41.2665
#> 3  -118.3016  34.0320
#> 4  -118.3016  34.0320
#> 5  -118.3016  34.0320
#> 6  -118.3016  34.0320
#> 7  -118.4415  34.2677
#> 8  -118.4415  34.2677
#> 9  -118.3016  34.0320
#> 10 -118.3016  34.0320
#> # ... with 15 more rows, and 15 more variables: url <chr>, key <chr>,
#> #   observation_type <chr>, name <chr>, country <chr>,
#> #   state_province <chr>, begin_date <date>, end_date <chr>, source <chr>,
#> #   remote_resource <chr>, locality <chr>,
#> #   coordinate_uncertainty_in_meters <int>, recorded_by <chr>,
#> #   last_modified <chr>, prov <chr>
```

We provide a function `occ2df` that pulls out a few key columns needed for making maps:


```r
occ2df(df)
```

```
#> # A tibble: 50 × 6
#>                  name  longitude latitude  prov       date        key
#>                 <chr>      <dbl>    <dbl> <chr>     <date>      <chr>
#> 1  Accipiter striatus  -97.12924 32.70085  gbif 2017-01-01 1453324136
#> 2  Accipiter striatus  -84.74625 40.01773  gbif 2017-01-21 1453369124
#> 3  Accipiter striatus  -72.58904 43.85320  gbif 2017-01-07 1453335509
#> 4  Accipiter striatus  -96.77096 33.22315  gbif 2017-01-04 1453335637
#> 5  Accipiter striatus -111.01449 32.27128  gbif 2017-01-15 1453356813
#> 6  Accipiter striatus  -77.41813 39.49461  gbif 2017-01-05 1453332084
#> 7  Accipiter striatus -122.05344 36.95316  gbif 2017-01-11 1453346783
#> 8  Accipiter striatus -122.59224 38.05409  gbif 2017-01-31 1453398190
#> 9  Accipiter striatus -100.92892 25.45035  gbif 2017-01-03 1453328268
#> 10 Accipiter striatus  -96.82008 33.17463  gbif 2017-01-05 1453360827
#> # ... with 40 more rows
```
…
