…
            ... and so on for each data source

```

If you only request data from gbif, like `from = 'gbif'`, then the other four source slots are present in the response object, but have no data.

You can quickly get just the GBIF data by indexing to it, like


```r
df$gbif
#> Species [Accipiter striatus (500)] 
#> First 10 rows of [Accipiter_striatus]
#> 
#> # A tibble: 500 × 78
#>    name       longi…¹ latit…² prov  issues key   scien…³ datas…⁴ publi…⁵ insta…⁶
#>    <chr>        <dbl>   <dbl> <chr> <chr>  <chr> <chr>   <chr>   <chr>   <chr>  
#>  1 Accipiter…   -96.6    33.1 gbif  cdrou… 3455… Accipi… 50c950… 28eb1a… 997448…
#>  2 Accipiter…   -82.0    40.3 gbif  cdrou… 3455… Accipi… 50c950… 28eb1a… 997448…
#>  3 Accipiter…  -120.     39.5 gbif  cdrou… 3455… Accipi… 50c950… 28eb1a… 997448…
#>  4 Accipiter…  -105.     28.3 gbif  cdrou… 3455… Accipi… 50c950… 28eb1a… 997448…
#>  5 Accipiter…   -74.5    40.8 gbif  cdrou… 3455… Accipi… 50c950… 28eb1a… 997448…
#>  6 Accipiter…  -123.     49.1 gbif  cdrou… 3455… Accipi… 50c950… 28eb1a… 997448…
#>  7 Accipiter…   -77.6    39.0 gbif  cdrou… 3455… Accipi… 50c950… 28eb1a… 997448…
#>  8 Accipiter…  -122.     38.0 gbif  cdrou… 3455… Accipi… 50c950… 28eb1a… 997448…
#>  9 Accipiter…  -122.     37.8 gbif  cdrou… 3455… Accipi… 50c950… 28eb1a… 997448…
#> 10 Accipiter…  -121.     36.5 gbif  cdrou… 3455… Accipi… 50c950… 28eb1a… 997448…
#> # … with 490 more rows, 68 more variables: publishingCountry <chr>,
#> #   protocol <chr>, lastCrawled <chr>, lastParsed <chr>, crawlId <int>,
#> #   hostingOrganizationKey <chr>, basisOfRecord <chr>, occurrenceStatus <chr>,
#> #   taxonKey <int>, kingdomKey <int>, phylumKey <int>, classKey <int>,
#> #   orderKey <int>, familyKey <int>, genusKey <int>, speciesKey <int>,
#> #   acceptedTaxonKey <int>, acceptedScientificName <chr>, kingdom <chr>,
#> #   phylum <chr>, order <chr>, family <chr>, genus <chr>, species <chr>, …
```

When you get data from multiple providers, the fields returned are slightly different because each data provider uses different formats for their data; different arrangements of data and different variable names for the same thing (e.g., one data provider may call latitude "latitude", while another may call it "lat"). For example:


```r
df <- occ(query = 'Accipiter striatus', from = c('gbif', 'idigbio'), limit = 25)
df$gbif$data$Accipiter_striatus
#> # A tibble: 25 × 75
#>    name       longi…¹ latit…² issues prov  key   scien…³ datas…⁴ publi…⁵ insta…⁶
#>    <chr>        <dbl>   <dbl> <chr>  <chr> <chr> <chr>   <chr>   <chr>   <chr>  
#>  1 Accipiter…   -96.6    33.1 cdrou… gbif  3455… Accipi… 50c950… 28eb1a… 997448…
#>  2 Accipiter…   -82.0    40.3 cdrou… gbif  3455… Accipi… 50c950… 28eb1a… 997448…
#>  3 Accipiter…  -120.     39.5 cdrou… gbif  3455… Accipi… 50c950… 28eb1a… 997448…
#>  4 Accipiter…  -105.     28.3 cdrou… gbif  3455… Accipi… 50c950… 28eb1a… 997448…
#>  5 Accipiter…   -74.5    40.8 cdrou… gbif  3455… Accipi… 50c950… 28eb1a… 997448…
#>  6 Accipiter…  -123.     49.1 cdrou… gbif  3455… Accipi… 50c950… 28eb1a… 997448…
#>  7 Accipiter…   -77.6    39.0 cdrou… gbif  3455… Accipi… 50c950… 28eb1a… 997448…
#>  8 Accipiter…  -122.     38.0 cdrou… gbif  3455… Accipi… 50c950… 28eb1a… 997448…
#>  9 Accipiter…  -122.     37.8 cdrou… gbif  3455… Accipi… 50c950… 28eb1a… 997448…
#> 10 Accipiter…  -121.     36.5 cdrou… gbif  3455… Accipi… 50c950… 28eb1a… 997448…
#> # … with 15 more rows, 65 more variables: publishingCountry <chr>,
#> #   protocol <chr>, lastCrawled <chr>, lastParsed <chr>, crawlId <int>,
#> #   hostingOrganizationKey <chr>, basisOfRecord <chr>, occurrenceStatus <chr>,
#> #   taxonKey <int>, kingdomKey <int>, phylumKey <int>, classKey <int>,
#> #   orderKey <int>, familyKey <int>, genusKey <int>, speciesKey <int>,
#> #   acceptedTaxonKey <int>, acceptedScientificName <chr>, kingdom <chr>,
#> #   phylum <chr>, order <chr>, family <chr>, genus <chr>, species <chr>, …
df$idigbio$data$Accipiter_striatus
#> # A tibble: 25 × 83
#>    associa…¹ barco…² basis…³ bed   canon…⁴ catal…⁵ class colle…⁶ colle…⁷ colle…⁸
#>    <lgl>     <lgl>   <chr>   <lgl> <chr>   <chr>   <chr> <chr>   <chr>   <lgl>  
#>  1 NA        NA      preser… NA    accipi… 76668   aves  bird    http:/… NA     
#>  2 NA        NA      preser… NA    accipi… usnm 4… aves  birds   urn:uu… NA     
#>  3 NA        NA      preser… NA    accipi… 21409.0 aves  birds   <NA>    NA     
#>  4 NA        NA      preser… NA    accipi… bird-1… aves  bird    <NA>    NA     
#>  5 NA        NA      preser… NA    accipi… 3726    aves  av      <NA>    NA     
#>  6 NA        NA      preser… NA    accipi… 2003-0… aves  birds   <NA>    NA     
#>  7 NA        NA      preser… NA    accipi… 39542   aves  birds   <NA>    NA     
#>  8 NA        NA      preser… NA    accipi… bird-2… aves  bird    <NA>    NA     
#>  9 NA        NA      preser… NA    accipi… cmnav … aves  cmnav   http:/… NA     
#> 10 NA        NA      preser… NA    accipi… 22879   aves  kuo     <NA>    NA     
#> # … with 15 more rows, 73 more variables: collector <chr>, commonname <chr>,
#> #   commonnames <list>, continent <chr>, coordinateuncertainty <dbl>,
#> #   country <chr>, countrycode <chr>, county <chr>, datasetid <chr>,
#> #   datecollected <date>, datemodified <chr>, dqs <dbl>,
#> #   earliestageorloweststage <lgl>, earliesteonorlowesteonothem <lgl>,
#> #   earliestepochorlowestseries <lgl>, earliesteraorlowesterathem <lgl>,
#> #   earliestperiodorlowestsystem <lgl>, etag <chr>, eventdate <chr>, …
```

We provide a function `occ2df` that pulls out a few key columns needed for making maps:


```r
occ2df(df)
#> # A tibble: 50 × 6
#>    name                              longitude latitude prov  date       key    
#>    <chr>                                 <dbl>    <dbl> <chr> <date>     <chr>  
#>  1 Accipiter striatus Vieillot, 1808     -96.6     33.1 gbif  2022-01-02 345549…
#>  2 Accipiter striatus Vieillot, 1808     -82.0     40.3 gbif  2022-01-06 345550…
#>  3 Accipiter striatus Vieillot, 1808    -120.      39.5 gbif  2022-01-13 345558…
#>  4 Accipiter striatus Vieillot, 1808    -105.      28.3 gbif  2022-01-04 345559…
#>  5 Accipiter striatus Vieillot, 1808     -74.5     40.8 gbif  2022-01-07 345563…
#>  6 Accipiter striatus Vieillot, 1808    -123.      49.1 gbif  2022-01-13 345564…
#>  7 Accipiter striatus Vieillot, 1808     -77.6     39.0 gbif  2022-01-02 345566…
#>  8 Accipiter striatus Vieillot, 1808    -122.      38.0 gbif  2022-01-09 345566…
#>  9 Accipiter striatus Vieillot, 1808    -122.      37.8 gbif  2022-01-07 345567…
#> 10 Accipiter striatus Vieillot, 1808    -121.      36.5 gbif  2022-01-05 345567…
#> # … with 40 more rows
```
…
