Interface to Species Occurrence Data Sources • spocc
…
Get fine-grained detail over each data source by passing on parameters to the packge rebird in this example.

(out <- occ(query = 'Setophaga caerulescens', from = 'gbif', gbifopts = list(country = 'US')))
#> Searched: gbif
#> Occurrences - Found: 238,863, Returned: 500
#> Search type: Scientific
#>   gbif: Setophaga caerulescens (500)

Get just gbif data

out$gbif
#> Species [Setophaga caerulescens (500)] 
#> First 10 rows of [Setophaga_caerulescens]
#> 
#> # A tibble: 500 x 105
#>    name  longitude latitude prov  issues    key datasetKey publishingOrgKey
#>    <chr>     <dbl>    <dbl> <chr> <chr>   <int> <chr>      <chr>           
#>  1 Seto…     -80.3     25.7 gbif  cdrou… 1.81e9 50c9509d-… 28eb1a3f-1c15-4…
#>  2 Seto…     -80.3     25.8 gbif  cdrou… 1.81e9 50c9509d-… 28eb1a3f-1c15-4…
#>  3 Seto…     -81.4     28.6 gbif  cdrou… 1.84e9 50c9509d-… 28eb1a3f-1c15-4…
#>  4 Seto…     -77.3     39.0 gbif  cdrou… 1.84e9 50c9509d-… 28eb1a3f-1c15-4…
#>  5 Seto…     -83.2     41.6 gbif  cdrou… 1.88e9 50c9509d-… 28eb1a3f-1c15-4…
#>  6 Seto…     -74.0     40.8 gbif  cdrou… 1.84e9 50c9509d-… 28eb1a3f-1c15-4…
#>  7 Seto…     -80.8     35.5 gbif  cdrou… 1.85e9 50c9509d-… 28eb1a3f-1c15-4…
#>  8 Seto…     -97.2     26.1 gbif  cdrou… 1.84e9 50c9509d-… 28eb1a3f-1c15-4…
#>  9 Seto…     -80.3     25.8 gbif  cdrou… 1.85e9 50c9509d-… 28eb1a3f-1c15-4…
#> 10 Seto…     -77.1     38.9 gbif  cdrou… 1.84e9 50c9509d-… 28eb1a3f-1c15-4…
#> # ... with 490 more rows, and 97 more variables: networkKeys <list>,
#> #   installationKey <chr>, publishingCountry <chr>, protocol <chr>,
#> #   lastCrawled <chr>, lastParsed <chr>, crawlId <int>,
#> #   basisOfRecord <chr>, taxonKey <int>, kingdomKey <int>,
#> #   phylumKey <int>, classKey <int>, orderKey <int>, familyKey <int>,
#> #   genusKey <int>, acceptedTaxonKey <int>, scientificName <chr>,
#> #   acceptedScientificName <chr>, kingdom <chr>, phylum <chr>,
#> #   order <chr>, family <chr>, genus <chr>, genericName <chr>,
#> #   specificEpithet <chr>, taxonRank <chr>, taxonomicStatus <chr>,
…
